Locations of Denny's restaurants — dennys • dsbox
…
zip

longitude

latitude

    Source

    Need source.

    Examples

dennys
#> # A tibble: 1,643 × 6
#>    address                        city            state zip   longitude latitude
#>    <chr>                          <chr>           <chr> <chr>     <dbl>    <dbl>
#>  1 2900 Denali                    Anchorage       AK    99503    -150.      61.2
#>  2 3850 Debarr Road               Anchorage       AK    99508    -150.      61.2
#>  3 1929 Airport Way               Fairbanks       AK    99701    -148.      64.8
#>  4 230 Connector Dr               Auburn          AL    36849     -85.5     32.6
#>  5 224 Daniel Payne Drive N       Birmingham      AL    35207     -86.8     33.6
#>  6 900 16th St S, Commons on Gree Birmingham      AL    35294     -86.8     33.5
#>  7 5931 Alabama Highway, #157     Cullman         AL    35056     -86.9     34.2
#>  8 2190 Ross Clark Circle         Dothan          AL    36301     -85.4     31.2
#>  9 900 Tyson Rd                   Hope Hull (Tys… AL    36043     -86.4     32.2
#> 10 4874 University Drive          Huntsville      AL    35816     -86.7     34.7
#> # … with 1,633 more rows
…
