Locations of La Quinta Inn motels — laquinta • dsbox
…
zip

longitude

latitude

    Source

    Need source.

    Examples

laquinta
#> # A tibble: 909 × 6
#>    address                          city          state zip   longitude latitude
#>    <chr>                            <chr>         <chr> <chr>     <dbl>    <dbl>
#>  1 793 W. Bel Air Avenue            "\nAberdeen"  MD    21001     -76.2     39.5
#>  2 3018 CatClaw Dr                  "\nAbilene"   TX    79606     -99.8     32.4
#>  3 3501 West Lake Rd                "\nAbilene"   TX    79601     -99.7     32.5
#>  4 184 North Point Way              "\nAcworth"   GA    30102     -84.7     34.1
#>  5 2828 East Arlington Street       "\nAda"       OK    74820     -96.6     34.8
#>  6 14925 Landmark Blvd              "\nAddison"   TX    75254     -96.8     33.0
#>  7 Carretera Panamericana Sur KM 12 "\nAguascali… AG    20345    -102.      21.8
#>  8 909 East Frontage Rd             "\nAlamo"     TX    78516     -98.1     26.2
#>  9 2116 Yale Blvd Southeast         "\nAlbuquerq… NM    87106    -107.      35.1
#> 10 7439 Pan American Fwy Northeast  "\nAlbuquerq… NM    87109    -107.      35.2
#> # … with 899 more rows
…
