North Carolina Bicycle Crash Data — ncbikecrash • dsbox
…
towrd_road

geo_pointLatitude and longitude of crash

geo_shape

    Source

    https://opendurham.nc.gov/explore/dataset/north_carolina_bicycle_crash_data_heatmap_/table/

    Examples

ncbikecrash
#> # A tibble: 7,467 x 66
#>    object_id city  county region development locality on_road rural_urban
#>        <dbl> <chr> <chr>  <chr>  <chr>       <chr>    <chr>   <chr>      
#>  1      1686 None… Wayne  Coast… Farms, Woo… Rural (… SR 1915 Rural      
#>  2      1674 Hend… Vance  Piedm… Residential Mixed (… NICHOL… Urban      
#>  3      1673 None… Linco… Piedm… Farms, Woo… Rural (… US 321  Rural      
#>  4      1687 Whit… Colum… Coast… Commercial  Urban (… W BURK… Urban      
#>  5      1653 Wilm… New H… Coast… Residential Urban (… RACINE… Urban      
#>  6      1665 None… Robes… Coast… Farms, Woo… Rural (… SR 1513 Rural      
#>  7      1642 None… Richm… Piedm… Residential Mixed (… SR 1903 Rural      
#>  8      1675 Rale… Wake   Piedm… Commercial  Urban (… PERSON… Urban      
#>  9      1668 Whit… Colum… Coast… Residential Rural (… FLOWER… Urban      
#> 10      1662 New … Craven Coast… Residential Urban (… SUTTON… Urban      
#> # … with 7,457 more rows, and 58 more variables: speed_limit <chr>,
#> #   traffic_control <chr>, weather <chr>, workzone <chr>, bike_age <chr>,
#> #   bike_age_group <chr>, bike_alcohol <chr>, bike_alcohol_drugs <chr>,
#> #   bike_direction <chr>, bike_injury <chr>, bike_position <chr>,
#> #   bike_race <chr>, bike_sex <chr>, driver_age <chr>, driver_age_group <chr>,
#> #   driver_alcohol <chr>, driver_alcohol_drugs <chr>, driver_est_speed <chr>,
#> #   driver_injury <chr>, driver_race <chr>, driver_sex <chr>,
#> #   driver_vehicle_type <chr>, crash_alcohol <chr>, crash_date <chr>,
#> #   crash_day <chr>, crash_group <chr>, crash_hour <dbl>, crash_location <chr>,
…
