Breweries in North Carolina — ncbreweries • dsbox
…
status
Status of brewery (Active or Closed)

url
URL of brewery page on RateBeer.com

    Source

    Retrieved from https://www.ratebeer.com/breweries/north%20carolina/33/213/ on April 18, 2018.

    Examples

ncbreweries
#> # A tibble: 251 × 7
#>    name                         city          type  beercount   est status url  
#>    <chr>                        <chr>         <chr>     <dbl> <dbl> <chr>  <chr>
#>  1 217 Brew Works               Wilson        Micr…        10  2017 Active http…
#>  2 3rd Rock Brewing Company     Trenton       Micr…        12  2016 Active http…
#>  3 7 Clans Brewing              Cherokee      Clie…         1  2018 Active http…
#>  4 Andrews Brewing Company      Andrews       Micr…        18  2014 Active http…
#>  5 Angry Troll Brewing          Elkin         Micr…         8  2017 Active http…
#>  6 Appalachian Mountain Brewery Boone         Micr…        78  2013 Active http…
#>  7 Archetype Brewing            Asheville     Micr…        15  2017 Active http…
#>  8 Asheville Brewing Company    Asheville     Brew…        87  2003 Active http…
#>  9 Ass Clown Brewing Company    Cornelius     Micr…       106  2011 Active http…
#> 10 Aviator Brewing Company      Fuquay Varina Micr…        59  2008 Active http…
#> # ℹ 241 more rows
…
