Student survey — student_survey • dsbox
…
marketplace_worst_mealWhat is Marketplace's worst meal? (chocolate covered crickets, salad bar, powdered eggs, the giant roasted hog, watery pasta)

best_book_turned_showFavorite book series turned Movie or TV Show? (Harry Potter, Game of Thrones, Lord of the Rings-Hobbit, Hunger Games, Twilight)

fav_fantasy_universeFavorite fantasy universe? (Legend of Zelda, Game of Thrones, Lord of the Rings, Harry Potter)

hogwarts_houseWhich Harry Potter house do you belong to? (Gryffindor (because I'm a badass), Ravenclaw (because I'm better than you), Hufflepuff (because I'm good at something), Slytherin (because I'll cut you))

shootersHow often do you go to Shooters a month? Enter a positive whole number. Enter 0 if you never go to Shooters

    Examples

student_survey

#> # A tibble: 80 x 53
#>     pets us_region class_year hair_color campus watch_sports beyonce_love
#>    <int> <chr>     <chr>      <chr>      <chr>  <chr>        <chr>       
#>  1     1 Southeast Junior     Brown      West   Basketball   yes         
#>  2     0 Southeast First-year Brown      East   Football     hell yes    
#>  3     0 Not from… Sophomore  Black      West   Soccer       no          
#>  4     1 Pacific … Junior     Brown      Off c… Football     hell yes    
#>  5     7 Southwest Sophomore  Brown      West   I don't wat… hell yes    
#>  6     1 Mid-Atla… Sophomore  Brown      West   Basketball   hell yes    
#>  7     3 Midwest   First-year Blonde     East   I don't wat… meh         
#>  8     0 Mid-Atla… Sophomore  Brown      West   Basketball   yes         
#>  9     1 Mid-Atla… Sophomore  Blonde     Centr… Basketball   hell yes    
#> 10     1 Midwest   First-year Brown      East   Basketball   yes         
#> # … with 70 more rows, and 46 more variables: fav_artist <chr>,
#> #   social_network <chr>, relationship_status <chr>, num_siblings <int>,
#> #   num_languages <chr>, nights_drinking <dbl>, pbj_or_n <chr>, tenting <chr>,
#> #   countries_visited <int>, first_kiss <int>, hours_watching_television <dbl>,
#> #   perimeter <chr>, fav_campus_eatery <chr>, fb_visits_per_day <int>,
#> #   ac <chr>, condiment <chr>, vegetarian <chr>, voted_for_president <chr>,
#> #   social_club <chr>, space_time <chr>, university_applications <int>,
#> #   pizza_consumption <dbl>, sick <int>, games_attended <int>,
#> #   pepsi_or_coke <chr>, fav_friend_character <chr>, continents_visited <int>,
…
